,faceR,faceG,faceB,faceH,faceS,faceV,eyesR,eyesG,eyesB,eyesH,eyesS,eyesV,hairR,hairG,hairB,hairH,hairS,hairV,eyebrowR,eyebrowG,eyebrowB,eyebrowH,eyebrowS,eyebrowV,type
0,205,158,135,19,34,80,56,37,30,16,46,21,35,28,25,17,28,13,138,101,85,18,38,54,0
1,179,130,96,24,46,70,86,51,31,21,63,33,74,52,34,27,54,29,143,101,72,24,49,56,0
2,104,80,70,17,32,40,77,64,50,31,35,30,74,58,53,14,28,29,129,97,84,17,34,50,0
3,220,183,161,22,26,86,67,70,76,219,11,29,68,57,53,16,22,26,106,81,74,13,30,41,0
4,106,78,60,23,43,41,147,134,125,24,14,57,33,28,25,22,24,12,97,70,54,22,44,38,0
5,191,147,126,19,34,74,89,73,61,25,31,34,96,74,65,17,32,37,127,102,92,17,27,49,0
6,225,180,151,23,32,88,91,77,63,29,30,35,53,48,52,312,9,20,76,45,36,13,52,29,0
7,115,75,55,20,52,45,59,37,28,17,52,23,92,65,51,20,44,36,171,116,86,21,49,67,0
8,159,117,97,19,38,62,49,43,38,27,22,19,40,32,29,16,27,15,135,106,94,17,30,52,0
9,215,177,150,24,30,84,74,66,62,20,16,29,200,169,145,26,27,78,120,97,83,22,30,47,0
10,214,172,153,18,28,83,64,46,43,8,32,25,165,138,129,14,21,64,149,117,103,18,30,58,0
11,147,100,71,22,51,57,68,57,47,28,30,26,30,22,18,20,40,11,103,71,56,19,45,40,0
12,172,133,121,14,29,67,52,33,24,19,53,20,68,46,37,17,45,26,127,97,89,12,29,49,0
13,212,154,118,22,44,83,68,48,37,21,45,26,62,42,35,15,43,24,158,104,84,16,46,61,0
14,234,186,161,20,31,91,32,24,23,6,28,12,76,45,33,16,56,29,130,89,73,16,43,50,0
15,101,82,82,0,18,39,55,41,53,308,25,21,48,41,52,278,21,20,94,77,78,356,18,36,0
16,149,97,70,20,53,58,64,42,35,14,45,25,93,60,42,21,54,36,107,64,41,20,61,41,0
17,190,134,104,20,45,74,42,22,21,2,50,16,105,68,52,18,50,41,134,93,74,18,44,52,0
18,144,114,96,22,33,56,67,52,38,28,43,26,122,95,79,22,35,47,129,102,85,23,34,50,0
19,194,156,135,21,30,76,61,34,25,14,59,23,127,94,69,25,45,49,110,74,52,22,52,43,0
20,232,174,152,16,34,90,55,34,32,5,41,21,113,84,78,10,30,44,119,75,67,9,43,46,0
21,121,91,72,23,40,47,87,75,67,24,22,34,24,23,17,51,29,9,123,89,72,19,41,48,0
22,135,96,80,17,40,52,87,76,74,9,14,34,66,53,51,7,22,25,112,86,80,11,28,43,0
23,219,162,132,20,39,85,62,30,19,15,69,24,59,37,29,16,50,23,145,94,75,16,48,56,0
24,165,114,88,20,46,64,66,54,51,11,22,25,82,66,59,18,28,32,140,104,89,17,36,54,0
25,204,166,145,21,28,80,104,111,119,212,12,46,0,0,0,0,0,0,172,141,123,22,28,67,0
26,201,177,171,12,14,78,60,42,34,18,43,23,0,0,0,0,0,0,138,100,86,16,37,54,0
27,205,154,128,20,37,80,33,29,35,280,17,13,128,97,81,20,36,50,120,90,74,20,38,47,0
28,107,80,65,21,39,41,40,36,38,330,10,15,76,60,55,14,27,29,95,76,71,12,25,37,0
29,182,153,126,28,30,71,66,64,54,49,18,25,90,69,45,31,50,35,116,89,68,26,41,45,0
30,171,140,102,33,40,67,50,50,47,60,5,19,62,54,43,34,30,24,105,86,67,30,36,41,0
31,177,136,114,20,35,69,54,41,39,8,27,21,145,114,96,22,33,56,132,101,85,20,35,51,0
32,226,189,165,23,26,88,57,44,41,11,28,22,46,36,32,17,30,18,121,89,76,17,37,47,0
33,186,147,117,26,37,72,62,63,55,67,12,24,0,0,0,0,0,0,124,92,68,25,45,48,0
34,165,111,76,23,53,64,49,33,27,16,44,19,139,98,70,24,49,54,125,81,55,22,55,49,0
35,154,127,108,24,29,60,82,68,56,27,31,32,0,0,0,0,0,0,144,111,91,22,36,56,0
36,158,115,89,22,43,61,29,21,17,20,41,11,0,0,0,0,0,0,102,73,56,22,45,40,0
37,195,139,108,21,44,76,78,54,49,10,37,30,78,56,46,18,41,30,150,109,92,17,38,58,0
38,204,164,147,17,27,80,79,64,60,12,24,30,0,0,0,0,0,0,166,133,120,16,27,65,0
39,205,177,164,19,20,80,59,50,49,5,16,23,142,120,110,18,22,55,146,118,108,15,26,57,0
40,165,135,125,15,24,64,75,68,71,334,9,29,29,25,25,0,13,11,144,114,105,13,27,56,0
41,103,79,63,24,38,40,40,34,28,30,30,15,75,68,65,18,13,29,84,67,57,22,32,32,0
42,151,103,64,26,57,59,38,32,28,24,26,14,92,63,38,27,58,36,137,98,66,27,51,53,0
43,234,186,142,28,39,91,79,56,45,19,43,30,164,130,100,28,39,64,183,134,97,25,46,71,0
44,33,23,19,17,42,12,31,22,19,15,38,12,37,27,22,19,40,14,65,40,31,15,52,25,0
45,169,130,110,20,34,66,57,45,44,4,22,22,0,0,0,0,0,0,157,122,108,17,31,61,0
46,185,163,156,14,15,72,66,53,51,7,22,25,84,74,71,13,15,32,106,85,78,14,26,41,0
47,202,181,171,19,15,79,92,85,92,300,7,36,87,79,80,352,9,34,155,127,122,9,21,60,0
48,219,197,189,16,13,85,91,101,109,206,16,42,70,60,57,13,18,27,158,134,126,15,20,61,0
49,169,148,133,25,21,66,102,99,95,34,6,40,148,128,114,24,22,58,136,108,95,19,30,53,0
50,227,194,164,28,27,89,102,114,111,164,10,44,130,108,85,30,34,50,180,141,114,24,36,70,0
51,127,99,85,20,33,49,67,69,70,200,4,27,101,80,68,21,32,39,111,83,72,16,35,43,0
52,182,164,159,13,12,71,82,83,86,225,4,33,132,116,113,9,14,51,84,73,72,4,14,32,0
53,122,111,101,28,17,47,65,55,49,22,24,25,83,72,64,25,22,32,109,95,86,23,21,42,0
54,227,171,152,15,33,89,96,86,75,31,21,37,140,105,94,14,32,54,88,65,61,8,30,34,0
55,235,217,199,30,15,92,78,55,36,27,53,30,58,44,33,26,43,22,151,126,107,25,29,59,0
56,223,176,149,21,33,87,78,75,82,265,8,32,145,107,88,20,39,56,168,122,101,18,39,65,0
57,27,22,17,30,37,10,44,35,30,21,31,17,32,26,21,27,34,12,147,112,94,20,36,57,0
58,216,193,186,14,13,84,99,111,121,207,18,47,134,118,114,11,14,52,154,130,123,13,20,60,0
59,204,165,146,19,28,80,98,92,74,44,24,38,146,118,103,20,29,57,109,87,78,17,28,42,0
60,168,135,124,15,26,65,43,34,34,0,20,16,52,41,38,12,26,20,126,96,87,13,30,49,0
61,163,121,93,24,42,63,80,76,67,41,16,31,141,106,81,25,42,55,126,91,65,25,48,49,0
62,222,174,147,21,33,87,66,59,44,40,33,25,94,76,66,21,29,36,82,64,53,22,35,32,0
63,212,186,163,28,23,83,87,81,75,29,13,34,21,18,17,15,19,8,130,110,91,29,29,50,0
64,167,126,105,20,37,65,65,61,59,20,9,25,132,100,81,22,38,51,137,96,75,20,45,53,0
65,139,118,110,16,20,54,61,44,34,22,44,23,52,40,35,17,32,20,126,103,96,14,23,49,0
66,234,197,179,19,23,91,92,88,93,288,5,36,139,113,102,17,26,54,165,127,110,18,33,64,0
67,218,180,175,6,19,85,81,89,103,218,21,40,0,0,0,0,0,0,126,104,103,2,18,49,0
68,216,167,135,23,37,84,78,82,80,149,4,32,151,113,90,22,40,59,162,119,98,19,39,63,0
69,171,146,128,25,25,67,96,72,70,4,27,37,74,61,58,11,21,29,130,98,86,16,33,50,0
70,179,148,133,19,25,70,45,44,47,260,6,18,99,93,95,339,6,38,117,99,94,13,19,45,0
71,198,171,167,7,15,77,77,62,63,356,19,30,78,76,87,250,12,34,167,140,136,7,18,65,0
72,154,127,121,10,21,60,91,78,81,346,14,35,96,72,71,2,26,37,123,93,85,12,30,48,0
73,201,160,134,23,33,78,46,34,28,20,39,18,134,106,86,24,35,52,141,108,88,22,37,55,0
74,131,105,98,12,25,51,53,42,41,4,22,20,0,0,0,0,0,0,130,99,91,12,29,50,0
75,143,113,110,5,23,56,55,53,55,300,3,21,79,60,58,5,26,30,96,73,71,4,26,37,0
76,131,100,88,16,32,51,38,32,31,8,18,14,135,113,108,11,20,52,100,75,68,13,32,39,0
77,186,146,136,11,26,72,67,61,58,20,13,26,90,65,58,13,35,35,137,101,92,11,32,53,0
78,207,183,157,31,24,81,90,83,74,33,17,35,59,48,36,31,38,23,152,127,108,25,28,59,0
79,207,195,199,339,5,81,72,79,86,210,16,33,45,35,33,9,26,17,147,121,117,8,20,57,0
80,202,130,93,20,53,79,42,25,17,19,59,16,61,40,31,17,49,23,161,102,69,21,57,63,0
81,195,140,123,14,36,76,81,72,77,326,11,31,112,82,73,13,34,43,147,103,94,10,36,57,0
82,195,146,120,20,38,76,55,61,67,210,17,26,119,93,80,19,32,46,104,69,56,16,46,40,0
83,180,134,121,13,32,70,97,64,65,358,34,38,122,92,87,8,28,47,173,127,126,1,27,67,0
84,222,183,162,21,27,87,95,94,96,270,2,37,40,32,32,0,20,15,122,87,79,11,35,47,0
85,201,157,135,20,32,78,57,58,66,233,13,25,18,21,20,160,14,8,157,132,119,20,24,61,0
86,203,141,111,19,45,79,69,68,62,51,10,27,145,98,74,20,48,56,103,70,53,20,48,40,0
87,225,168,155,11,31,88,80,70,80,300,12,31,115,84,79,8,31,45,129,89,88,1,31,50,0
88,181,133,113,17,37,70,48,50,53,216,9,20,106,80,68,18,35,41,104,76,65,16,37,40,0
89,203,161,138,21,32,79,93,91,92,330,2,36,84,70,64,18,23,32,151,119,106,17,29,59,0
90,191,140,114,20,40,74,36,23,24,355,36,14,138,102,84,20,39,54,145,104,84,19,42,56,0
91,109,70,49,21,55,42,102,75,55,25,46,40,0,0,0,0,0,0,133,86,59,21,55,52,0
92,199,165,153,15,23,78,54,45,45,0,16,21,147,113,95,20,35,57,140,115,105,17,25,54,0
93,150,115,109,8,27,58,49,36,32,14,34,19,32,25,25,0,21,12,115,85,81,7,29,45,0
94,186,136,113,18,39,72,83,87,88,191,5,34,103,74,61,18,40,40,167,123,106,16,36,65,0
95,145,107,83,23,42,56,54,36,29,16,46,21,24,19,14,30,41,9,101,69,56,17,44,39,0
96,201,166,142,24,29,78,96,105,120,217,20,47,65,59,65,300,9,25,122,96,89,12,27,47,0
97,239,188,148,26,38,93,92,60,42,21,54,36,74,52,38,23,48,29,149,105,80,21,46,58,0
98,124,86,71,16,42,48,103,63,53,11,48,40,100,62,46,17,54,39,133,88,71,16,46,52,0
99,86,58,32,28,62,33,59,51,42,31,28,23,116,84,52,30,55,45,121,99,71,33,41,47,0
100,27,26,26,0,3,10,73,71,79,254,10,30,65,56,55,5,15,25,79,56,53,6,32,30,0
101,205,138,97,22,52,80,82,61,43,27,47,32,52,41,29,31,44,20,148,101,75,21,49,58,0
102,169,157,151,20,10,66,71,62,63,353,12,27,32,34,39,222,17,15,123,111,110,4,10,48,0
103,94,78,73,14,22,36,56,67,69,189,18,27,0,0,0,0,0,0,85,63,56,14,34,33,0
104,186,119,83,20,55,72,44,22,15,14,65,17,83,52,38,18,54,32,152,88,54,20,64,59,0
105,245,191,156,23,36,96,101,90,81,27,19,39,130,96,77,21,40,50,147,106,91,16,38,57,0
106,240,183,144,24,40,94,72,72,62,60,13,28,0,0,0,0,0,0,171,123,86,26,49,67,0
107,190,146,130,15,31,74,71,72,72,180,1,28,100,88,86,8,13,39,121,95,88,12,27,47,0
108,179,124,89,23,50,70,65,53,42,28,35,25,131,100,79,24,39,51,152,103,72,23,52,59,0
109,210,142,105,21,50,82,77,64,49,32,36,30,50,32,22,21,56,19,160,105,79,19,50,62,0
110,195,169,158,17,18,76,66,74,90,220,26,35,140,120,113,15,19,54,119,88,77,15,35,46,0
111,174,142,141,1,18,68,126,121,126,300,3,49,53,48,53,300,9,20,129,99,102,354,23,50,0
112,168,122,101,18,39,65,75,79,79,180,5,30,112,79,63,19,43,43,155,114,97,17,37,60,0
113,183,114,88,16,51,71,50,37,29,22,42,19,93,56,43,15,53,36,104,65,52,14,50,40,0
114,191,136,102,22,46,74,59,41,29,24,50,23,0,0,0,0,0,0,144,98,75,20,47,56,0
115,213,169,156,13,26,83,70,62,61,6,12,27,0,0,0,0,0,0,122,94,88,10,27,47,0
116,190,133,98,22,48,74,23,18,18,0,21,9,101,71,51,24,49,39,124,85,64,20,48,48,0
117,215,170,150,18,30,84,62,45,40,13,35,24,0,0,0,0,0,0,156,114,98,16,37,61,0
118,200,146,123,17,38,78,39,30,29,5,25,15,63,41,33,16,47,24,108,71,59,14,45,42,0
119,186,150,137,15,26,72,67,51,51,0,23,26,164,139,132,13,19,64,142,114,107,12,24,55,0
120,186,143,131,13,29,72,60,51,54,340,14,23,0,0,0,0,0,0,155,115,105,12,32,60,0
121,123,100,83,25,32,48,71,60,54,21,23,27,0,0,0,0,0,0,136,105,91,18,33,53,0
122,195,153,130,21,33,76,67,51,42,21,37,26,147,113,95,20,35,57,141,104,90,16,36,55,0
123,195,153,130,21,33,76,68,51,42,20,38,26,147,113,95,20,35,57,141,105,91,16,35,55,0
124,140,86,67,15,52,54,69,41,34,12,50,27,47,31,24,18,48,18,174,114,88,18,49,68,0
125,124,83,65,18,47,48,43,33,31,10,27,16,91,61,47,19,48,35,111,81,70,16,36,43,0
126,134,100,83,19,38,52,45,34,34,0,24,17,76,60,55,14,27,29,150,116,101,18,32,58,0
127,202,161,122,29,39,79,63,55,50,23,20,24,91,81,79,9,13,35,132,99,79,22,40,51,0
128,92,63,56,11,39,36,49,37,35,8,28,19,0,0,0,0,0,0,79,50,44,10,44,30,0
129,191,149,128,20,32,74,52,39,34,16,34,20,69,56,49,20,28,27,132,97,82,17,37,51,0
130,139,97,78,18,43,54,60,46,40,18,33,23,0,0,0,0,0,0,150,113,93,21,38,58,0
131,154,107,78,22,49,60,26,17,13,18,50,10,84,60,46,22,45,32,130,89,65,22,50,50,0
132,127,95,83,16,34,49,47,37,33,17,29,18,28,29,30,210,6,11,124,92,77,19,37,48,0
133,141,101,88,14,37,55,71,57,49,21,30,27,87,73,69,13,20,34,130,97,82,18,36,50,0
134,176,138,116,21,34,69,64,53,46,23,28,25,59,52,44,31,25,23,143,109,93,19,34,56,0
135,188,125,96,18,48,73,64,43,38,11,40,25,0,0,0,0,0,0,132,90,74,16,43,51,0
136,217,157,135,16,37,85,61,44,43,3,29,23,182,131,111,16,39,71,144,101,89,13,38,56,0
137,191,136,108,20,43,74,59,43,34,21,42,23,156,118,98,20,37,61,107,75,62,17,42,41,0
138,206,146,123,16,40,80,42,32,27,20,35,16,51,38,31,20,39,20,108,72,59,15,45,42,0
139,172,106,72,20,58,67,47,31,23,19,51,18,54,33,22,20,59,21,119,71,47,20,60,46,0
140,220,145,113,17,48,86,53,40,36,14,32,20,130,78,55,18,57,50,151,97,75,17,50,59,0
141,157,114,96,17,38,61,59,45,37,21,37,23,0,0,0,0,0,0,109,78,65,17,40,42,0
142,165,115,100,13,39,64,55,39,32,18,41,21,63,39,34,10,46,24,143,97,80,16,44,56,0
143,245,207,185,22,24,96,103,89,80,23,22,40,211,167,129,27,38,82,193,144,126,16,34,75,1
144,225,197,186,16,17,88,83,82,81,30,2,32,172,140,112,28,34,67,156,125,115,14,26,61,1
145,206,180,151,31,26,80,96,94,94,0,2,37,185,171,149,36,19,72,200,163,134,26,32,78,1
146,212,165,150,14,29,83,77,74,70,34,9,30,196,169,148,26,24,76,149,109,96,14,35,58,1
147,209,162,135,21,35,81,85,84,81,45,4,33,171,140,107,30,37,67,162,116,97,17,40,63,1
148,194,161,141,22,27,76,87,82,77,30,11,34,0,0,0,0,0,0,149,114,97,19,34,58,1
149,172,144,115,30,33,67,111,111,106,60,4,43,129,105,82,29,36,50,155,123,90,30,41,60,1
150,202,179,158,28,21,79,60,52,44,30,26,23,177,160,132,37,25,69,166,124,92,25,44,65,1
151,193,168,152,23,21,75,59,64,71,215,16,27,189,165,140,30,25,74,141,116,106,17,24,55,1
152,184,152,127,26,30,72,125,114,103,30,17,49,0,0,0,0,0,0,161,125,102,23,36,63,1
153,193,148,124,20,35,75,62,52,56,336,16,24,0,0,0,0,0,0,161,117,105,12,34,63,1
154,232,187,167,18,28,90,76,71,72,348,6,29,186,150,125,24,32,72,172,127,110,16,36,67,1
155,225,194,173,24,23,88,107,84,69,23,35,41,212,176,153,23,27,83,152,102,75,21,50,59,1
156,225,188,169,20,24,88,107,104,102,23,4,41,194,157,131,24,32,76,172,134,118,17,31,67,1
157,249,202,177,20,28,97,103,108,106,156,4,42,204,167,137,26,32,80,176,136,117,19,33,69,1
158,228,205,187,26,17,89,66,63,54,44,18,25,0,0,0,0,0,0,171,139,116,25,32,67,1
159,224,181,158,20,29,87,55,58,59,195,6,23,149,122,94,30,36,58,147,112,93,21,36,57,1
160,218,178,164,15,24,85,70,69,71,270,2,27,206,169,153,18,25,80,154,111,101,11,34,60,1
161,238,197,174,21,26,93,79,80,87,232,9,34,229,188,162,23,29,89,170,124,107,16,37,66,1
162,186,139,110,22,40,72,85,76,65,33,23,33,164,122,98,21,40,64,145,107,84,22,42,56,1
163,233,192,165,23,29,91,34,32,31,20,8,13,198,167,144,25,27,77,116,87,71,21,38,45,1
164,200,171,152,23,24,78,35,33,29,40,17,13,156,129,110,24,29,61,103,80,67,21,34,40,1
165,247,192,168,18,31,96,58,52,47,27,18,22,223,179,156,20,30,87,126,86,71,16,43,49,1
166,196,168,155,19,20,76,60,65,75,220,20,29,193,165,146,24,24,75,143,115,107,13,25,56,1
167,192,152,123,25,35,75,79,77,78,329,2,30,119,95,76,26,36,46,171,127,103,21,39,67,1
168,203,181,166,24,18,79,90,75,72,10,20,35,0,0,0,0,0,0,160,127,111,19,30,62,1
169,224,185,160,23,28,87,100,88,78,27,21,39,214,179,159,21,25,83,153,117,96,22,37,60,1
170,198,168,152,20,23,77,66,63,62,15,6,25,182,153,132,25,27,71,129,97,85,16,34,50,1
171,230,199,180,22,21,90,102,96,89,32,12,40,191,173,154,30,19,74,141,105,92,15,34,55,1
172,239,181,151,20,36,93,72,64,59,23,18,28,190,150,124,23,34,74,125,86,68,18,45,49,1
173,194,159,131,26,32,76,138,121,116,13,15,54,102,77,49,31,51,40,168,128,104,22,38,65,1
174,216,181,165,18,23,84,76,68,62,25,18,29,0,0,0,0,0,0,166,126,107,19,35,65,1
175,169,130,111,19,34,66,45,39,33,30,26,17,154,131,110,28,28,60,120,88,74,18,38,47,1
176,184,155,140,20,23,72,62,63,67,228,7,26,181,181,177,60,2,70,175,144,131,17,25,68,1
177,215,186,168,22,21,84,93,92,91,30,2,36,205,179,163,22,20,80,177,149,140,14,20,69,1
178,201,172,164,12,18,78,59,54,54,0,8,23,0,0,0,0,0,0,146,115,105,14,28,57,1
179,193,165,149,21,22,75,85,97,95,170,12,38,85,51,38,16,55,33,155,118,92,24,40,60,1
180,197,162,148,17,24,77,77,70,62,32,19,30,134,106,94,18,29,52,139,105,90,18,35,54,1
181,217,171,147,20,32,85,87,85,87,300,2,34,133,104,87,22,34,52,155,113,92,20,40,60,1
182,232,195,194,1,16,90,129,137,158,223,18,61,112,94,87,16,22,43,157,129,135,347,17,61,1
183,155,131,129,4,16,60,50,48,47,19,5,19,0,0,0,0,0,0,108,92,95,348,14,42,1
184,231,204,182,26,21,90,75,60,52,20,30,29,127,101,78,28,38,49,165,130,98,28,40,64,1
185,225,163,134,19,40,88,107,97,86,31,19,41,129,85,65,18,49,50,148,96,72,18,51,58,1
186,236,186,173,12,26,92,67,56,56,0,16,26,136,104,95,13,30,53,147,99,86,12,41,57,1
187,226,180,158,19,30,88,106,100,93,32,12,41,157,120,90,26,42,61,160,122,107,16,33,62,1
188,211,177,157,22,25,82,75,75,72,60,4,29,119,95,79,24,33,46,129,98,85,17,34,50,1
189,143,108,83,24,41,56,72,59,52,21,27,28,0,0,0,0,0,0,123,88,63,24,48,48,1
190,200,170,156,19,21,78,66,64,61,35,7,25,163,127,110,19,32,63,144,114,99,20,31,56,1
191,220,178,158,19,28,86,113,97,90,18,20,44,0,0,0,0,0,0,167,120,103,15,38,65,1
192,225,169,145,18,35,88,94,86,84,12,10,36,189,142,119,19,37,74,126,83,70,13,44,49,1
193,222,188,176,15,20,87,80,73,56,42,30,31,122,100,90,18,26,47,157,127,113,19,28,61,1
194,199,159,136,21,31,78,87,85,87,300,2,34,157,122,101,22,35,61,146,106,84,21,42,57,1
195,191,158,143,18,25,74,73,63,57,22,21,28,0,0,0,0,0,0,153,119,102,20,33,60,1
196,158,123,100,23,36,61,86,87,86,120,1,34,0,0,0,0,0,0,125,96,78,22,37,49,1
197,163,120,103,17,36,63,59,49,48,5,18,23,59,48,46,9,22,23,113,86,79,12,30,44,1
198,208,180,175,9,15,81,117,112,119,282,5,46,0,0,0,0,0,0,198,159,153,8,22,77,1
199,201,171,164,11,18,78,58,53,54,348,8,22,0,0,0,0,0,0,146,115,106,13,27,57,1
200,175,139,123,18,29,68,61,51,42,28,31,23,138,111,96,21,30,54,141,105,85,21,39,55,1
201,158,125,117,11,25,61,47,43,46,315,8,18,86,66,64,5,25,33,98,72,67,9,31,38,1
202,224,195,178,22,20,87,77,64,58,18,24,30,152,126,109,23,28,59,141,110,97,17,31,55,1
203,181,144,125,20,30,70,61,52,46,23,24,23,0,0,0,0,0,0,108,82,69,20,36,42,1
204,240,207,182,25,24,94,122,101,83,27,31,47,80,61,43,29,46,31,195,151,123,23,36,76,1
205,157,124,107,20,31,61,43,36,33,17,23,16,0,0,0,0,0,0,119,93,82,17,31,46,1
206,209,171,157,16,24,81,61,48,43,16,29,23,137,114,102,20,25,53,141,98,82,16,41,55,1
207,217,183,167,19,23,85,39,30,28,10,28,15,0,0,0,0,0,0,121,91,82,13,32,47,1
208,205,171,153,20,25,80,58,50,45,23,22,22,0,0,0,0,0,0,114,82,67,19,41,44,1
209,203,158,145,13,28,79,73,62,56,21,23,28,100,83,74,20,25,39,179,139,129,11,27,70,1
210,219,183,172,14,21,85,27,24,24,0,11,10,0,0,0,0,0,0,103,75,72,5,30,40,1
211,181,163,163,0,9,70,58,61,74,228,21,29,102,93,87,23,14,40,96,81,87,335,15,37,1
212,151,120,105,19,30,59,55,47,44,16,20,21,169,140,123,22,27,66,130,98,85,17,34,50,1
213,199,160,145,16,27,78,96,77,73,10,23,37,98,83,80,10,18,38,165,132,122,13,26,64,1
214,180,160,151,18,16,70,37,29,26,16,29,14,69,71,77,224,10,30,101,78,69,16,31,39,1
215,171,135,117,20,31,67,105,98,93,25,11,41,143,119,103,24,27,56,204,170,159,14,22,80,1
216,198,158,146,13,26,77,93,97,99,200,6,38,0,0,0,0,0,0,144,107,98,11,31,56,1
217,215,171,148,20,31,84,95,95,98,240,3,38,0,0,0,0,0,0,160,115,94,19,41,62,1
218,152,107,80,22,47,59,78,62,48,27,38,30,0,0,0,0,0,0,131,89,64,22,51,51,1
219,189,145,121,21,35,74,133,140,142,193,6,55,159,129,110,23,30,62,103,79,65,22,36,40,1
220,229,183,154,23,32,89,136,131,117,44,13,53,135,100,82,20,39,52,152,103,77,20,49,59,1
221,182,157,126,33,30,71,76,68,55,37,27,29,80,64,40,36,50,31,125,92,57,30,54,49,1
222,205,147,126,15,38,80,64,56,52,20,18,25,175,130,110,18,37,68,151,101,84,15,44,59,1
223,206,147,108,23,47,80,100,88,68,37,32,39,161,126,91,30,43,63,107,67,44,21,58,41,1
224,148,119,108,16,27,58,51,41,36,20,29,20,145,123,116,14,20,56,85,50,38,15,55,33,1
225,168,108,79,19,52,65,90,72,66,14,26,35,132,88,64,21,51,51,154,102,78,18,49,60,1
226,201,142,106,22,47,78,120,102,87,27,27,47,128,91,65,24,49,50,176,121,94,19,46,69,1
227,190,143,119,20,37,74,100,79,69,19,31,39,143,102,80,20,44,56,142,99,79,19,44,55,1
228,180,154,127,30,29,70,48,47,46,30,4,18,178,154,129,30,27,69,133,100,81,21,39,52,1
229,194,145,123,18,36,76,110,92,91,3,17,43,94,69,50,25,46,36,194,149,132,16,31,76,1
230,163,113,83,22,49,63,93,77,66,24,29,36,152,108,80,23,47,59,135,96,74,21,45,52,1
231,158,117,102,16,35,61,75,70,70,0,6,29,127,94,80,17,37,49,147,104,88,16,40,57,1
232,166,121,99,19,40,65,51,42,39,14,23,20,0,0,0,0,0,0,101,73,64,14,36,39,1
233,150,115,95,21,36,58,68,55,50,16,26,26,147,115,96,22,34,57,160,127,112,18,30,62,1
234,212,171,142,24,33,83,72,57,46,25,36,28,123,96,73,27,40,48,130,99,77,24,40,50,1
235,165,129,102,25,38,64,43,36,29,29,32,16,153,129,109,27,28,60,114,85,67,22,41,44,1
236,140,109,95,18,32,54,67,66,68,270,2,26,91,72,61,21,32,35,111,89,83,12,25,43,1
237,158,115,91,21,42,61,39,29,24,19,38,15,106,75,52,25,50,41,131,93,72,21,45,51,1
238,228,165,122,24,46,89,64,48,34,28,46,25,184,133,92,26,50,72,164,114,83,22,49,64,1
239,240,204,180,24,24,94,81,69,60,25,25,31,0,0,0,0,0,0,157,115,90,22,42,61,1
240,177,125,96,21,45,69,38,33,28,30,26,14,143,103,77,23,46,56,118,79,57,21,51,46,1
241,221,183,147,29,33,86,59,52,45,29,23,23,205,173,142,29,30,80,145,109,82,25,43,56,2
242,224,191,172,21,23,87,83,74,74,0,10,32,199,164,143,22,28,78,163,119,101,17,38,63,2
243,216,166,152,13,29,84,75,73,79,260,7,30,0,0,0,0,0,0,169,120,112,8,33,66,2
244,204,158,128,23,37,80,63,59,55,30,12,24,147,118,94,27,36,57,162,114,90,20,44,63,2
245,202,176,152,28,24,79,40,38,37,19,7,15,155,130,106,29,31,60,135,99,81,20,40,52,2
246,193,153,110,31,43,75,103,78,50,31,51,40,117,82,41,32,64,45,173,139,108,28,37,67,2
247,165,106,72,21,56,64,79,62,54,19,31,30,136,96,62,27,54,53,155,100,70,21,54,60,2
248,205,139,96,23,53,80,86,59,51,13,40,33,167,111,70,25,58,65,143,92,71,17,50,56,2
249,227,198,183,20,19,89,79,93,100,200,20,39,180,143,116,25,35,70,179,143,127,18,29,70,2
250,204,157,131,21,35,80,85,79,65,42,23,33,0,0,0,0,0,0,147,100,81,17,44,57,2
251,200,133,105,17,47,78,82,61,51,19,37,32,143,96,68,22,52,56,155,107,87,17,43,60,2
252,198,145,114,22,42,77,67,56,49,23,26,26,173,124,95,22,45,67,133,90,70,19,47,52,2
253,237,206,162,35,31,92,136,121,98,36,27,53,159,123,79,33,50,62,151,114,79,29,47,59,2
254,227,187,128,35,43,89,90,80,73,24,18,35,219,178,126,33,42,85,179,131,90,27,49,70,2
255,185,141,115,22,37,72,71,70,73,260,4,28,175,134,103,25,41,68,166,123,103,19,37,65,2
256,234,195,172,22,26,91,97,95,93,30,4,38,0,0,0,0,0,0,209,160,142,16,32,81,2
257,170,140,130,15,23,66,62,53,51,10,17,24,0,0,0,0,0,0,130,98,88,14,32,50,2
258,183,141,117,21,36,71,52,46,46,0,11,20,148,107,80,23,45,58,138,99,85,15,38,54,2
259,232,193,171,21,26,90,82,73,64,29,21,32,0,0,0,0,0,0,166,117,92,20,44,65,2
260,180,141,113,25,37,70,67,54,46,22,31,26,177,138,98,30,44,69,153,110,84,22,45,60,2
261,210,170,153,17,27,82,67,83,100,210,32,39,0,0,0,0,0,0,188,148,127,20,32,73,2
262,206,150,120,20,41,80,78,67,63,15,19,30,113,78,55,23,51,44,166,119,91,22,45,65,2
263,190,157,119,32,37,74,79,85,81,139,7,33,131,115,84,39,35,51,178,146,111,31,37,69,2
264,210,165,132,25,37,82,136,119,102,30,24,53,160,127,101,26,36,62,193,149,122,22,36,75,2
265,157,108,66,27,57,61,200,186,171,31,14,78,54,36,18,30,66,21,197,147,110,25,44,77,2
266,222,168,139,20,37,87,95,85,84,5,11,37,230,169,131,23,43,90,187,132,112,16,40,73,2
267,220,168,140,20,36,86,87,83,83,0,4,34,93,60,38,24,59,36,152,106,83,20,45,59,2
268,204,160,135,21,33,80,83,84,75,66,10,32,112,87,61,30,45,43,175,136,116,20,33,68,2
269,181,145,114,27,37,70,70,63,52,36,25,27,0,0,0,0,0,0,114,85,61,27,46,44,2
270,219,169,127,27,42,85,79,62,49,25,37,30,120,85,51,29,57,47,193,145,108,26,44,75,2
271,214,158,124,22,42,83,75,73,70,35,6,29,146,99,65,25,55,57,186,137,108,22,41,72,2
272,212,163,133,22,37,83,68,55,46,24,32,26,152,93,59,21,61,59,178,126,96,21,46,69,2
273,207,159,128,23,38,81,101,100,95,50,5,39,124,86,58,25,53,48,155,115,92,21,40,60,2
274,203,156,147,9,27,79,74,66,77,283,14,30,0,0,0,0,0,0,152,108,100,9,34,59,2
275,202,162,137,23,32,79,65,66,67,209,2,26,138,102,69,28,50,54,166,134,109,26,34,65,2
276,202,162,143,19,29,79,79,81,85,220,7,33,179,140,120,20,32,70,142,108,94,17,33,55,2
277,184,154,136,22,26,72,76,69,60,33,21,29,126,97,71,28,43,49,122,90,72,21,40,47,2
278,171,136,109,26,36,67,56,56,50,60,10,21,131,104,81,27,38,51,109,76,57,21,47,42,2
279,220,167,134,23,39,86,130,120,115,20,11,50,125,73,44,21,64,49,196,143,118,19,39,76,2
280,214,154,113,24,47,83,60,51,40,33,33,23,116,87,57,30,50,45,161,112,78,24,51,63,2
281,212,160,124,24,41,83,75,58,45,25,40,29,158,116,86,24,45,61,161,116,90,21,44,63,2
282,186,154,144,14,22,72,68,56,52,15,23,26,167,133,115,20,31,65,137,99,88,13,35,53,2
283,186,118,85,19,54,72,66,46,35,21,46,25,0,0,0,0,0,0,137,81,57,18,58,53,2
284,235,211,205,11,12,92,61,56,59,323,8,23,0,0,0,0,0,0,160,118,109,10,31,62,2
285,177,119,89,20,49,69,44,25,15,20,65,17,132,76,36,24,72,51,123,72,43,21,65,48,2
286,161,128,103,25,36,63,52,45,41,21,21,20,0,0,0,0,0,0,157,122,104,20,33,61,2
287,221,174,152,19,31,86,81,65,62,9,23,31,160,108,75,23,53,62,190,137,117,16,38,74,2
288,196,142,122,16,37,76,47,39,40,352,17,18,167,114,92,17,44,65,157,103,86,14,45,61,2
289,216,170,151,17,30,84,95,86,80,24,15,37,0,0,0,0,0,0,181,135,116,17,35,70,2
290,244,210,191,21,21,95,124,113,104,26,16,48,0,0,0,0,0,0,187,141,108,25,42,73,2
291,219,174,155,17,29,85,104,95,82,35,21,40,197,153,132,19,32,77,175,136,117,19,33,68,2
292,169,122,86,26,49,66,94,70,60,17,36,36,170,135,107,26,37,66,158,101,72,20,54,61,2
293,199,149,124,20,37,78,78,68,56,32,28,30,145,107,85,22,41,56,151,106,88,17,41,59,2
294,192,150,117,26,39,75,68,60,54,25,20,26,142,117,93,29,34,55,136,95,69,23,49,53,2
295,151,117,76,32,49,59,77,63,52,26,32,30,117,86,49,32,58,45,154,122,97,26,37,60,2
296,230,177,141,24,38,90,75,58,46,24,38,29,213,168,132,26,38,83,183,123,92,20,49,71,2
297,227,186,164,20,27,89,84,81,80,14,4,32,219,177,151,22,31,85,189,138,114,19,39,74,2
298,238,192,168,20,29,93,77,72,63,38,18,30,160,135,106,32,33,62,177,130,109,18,38,69,2
299,248,189,148,24,40,97,105,78,58,25,44,41,168,119,73,29,56,65,187,119,77,22,58,73,2
300,233,209,189,27,18,91,96,77,70,16,27,37,220,196,168,32,23,86,199,149,120,22,39,78,2
301,202,152,122,22,39,79,55,50,47,22,14,21,192,152,124,24,35,75,140,97,79,17,43,54,2
302,214,171,145,22,32,83,93,96,94,140,3,37,0,0,0,0,0,0,181,137,109,23,39,70,2
303,232,193,171,21,26,90,82,73,64,29,21,32,0,0,0,0,0,0,166,117,92,20,44,65,2
304,180,141,114,24,36,70,67,56,47,26,29,26,177,138,98,30,44,69,152,109,84,22,44,59,2
305,205,145,124,15,39,80,83,79,83,300,4,32,0,0,0,0,0,0,160,105,86,15,46,62,2
306,213,186,172,20,19,83,68,67,72,251,6,28,0,0,0,0,0,0,168,132,117,17,30,65,2
307,197,160,143,18,27,77,59,51,46,23,22,23,187,158,142,21,24,73,126,93,80,16,36,49,2
308,227,188,156,27,31,89,71,54,50,11,29,27,93,70,48,29,48,36,128,90,66,23,48,50,3
309,196,147,117,22,40,76,72,58,46,27,36,28,126,83,53,24,57,49,135,90,65,21,51,52,3
310,159,100,73,18,54,62,65,43,36,14,44,25,135,93,75,17,44,52,140,95,74,19,47,54,3
311,218,175,155,19,28,85,113,106,104,13,7,44,96,72,58,22,39,37,173,126,106,17,38,67,3
312,177,125,103,17,41,69,94,69,48,27,48,36,98,67,54,17,44,38,146,108,94,16,35,57,3
313,141,95,53,28,62,55,100,71,33,34,67,39,79,45,18,26,77,30,120,75,44,24,63,47,3
314,211,160,123,25,41,82,75,57,45,24,40,29,160,118,88,25,45,62,160,116,90,22,43,62,3
315,221,191,166,27,24,86,125,105,86,29,31,49,138,79,43,22,68,54,201,149,117,22,41,78,3
316,217,166,134,23,38,85,73,69,68,11,6,28,99,76,58,26,41,38,158,117,97,19,38,61,3
317,192,163,146,22,23,75,80,76,68,40,15,31,129,106,87,27,32,50,133,110,100,18,24,52,3
318,138,102,74,26,46,54,90,72,50,32,44,35,0,0,0,0,0,0,138,98,77,20,44,54,3
319,208,140,100,22,51,81,102,68,45,24,55,40,122,77,52,21,57,47,175,121,91,21,48,68,3
320,183,128,96,22,47,71,108,81,45,34,58,42,90,62,42,24,53,35,155,114,90,22,41,60,3
321,144,93,68,19,52,56,89,87,88,330,2,34,94,60,43,19,54,36,170,114,96,14,43,66,3
322,159,119,105,15,33,62,66,62,68,280,8,26,66,47,47,0,28,25,143,98,84,14,41,56,3
323,205,183,172,19,16,80,86,80,74,29,13,33,103,46,16,20,84,40,166,123,101,20,39,65,3
324,159,116,97,18,38,62,60,49,55,327,18,23,82,59,52,14,36,32,124,95,89,10,28,48,3
325,172,123,95,21,44,67,72,61,52,27,27,28,126,88,73,16,42,49,124,82,62,19,50,48,3
326,224,175,145,22,35,87,132,106,88,24,33,51,91,60,40,23,56,35,170,125,101,20,40,66,3
327,165,124,103,20,37,64,68,52,51,3,24,26,108,67,48,19,55,42,99,67,56,15,43,38,3
328,187,133,89,26,52,73,90,56,43,16,52,35,0,0,0,0,0,0,148,99,66,24,55,58,3
329,170,116,82,23,51,66,63,58,47,41,25,24,128,82,53,23,58,50,146,95,71,19,51,57,3
330,163,115,95,17,41,63,107,95,86,25,19,41,64,35,26,14,59,25,159,107,86,17,45,62,3
331,210,149,128,15,39,82,76,61,65,344,19,29,107,55,30,19,71,41,163,107,93,12,42,63,3
332,179,145,127,20,29,70,93,85,85,0,8,36,0,0,0,0,0,0,169,135,123,15,27,66,3
333,189,129,94,22,50,74,60,39,28,20,53,23,0,0,0,0,0,0,145,93,68,19,53,56,3
334,154,127,122,9,20,60,95,82,86,341,13,37,87,64,65,357,26,34,123,93,85,12,30,48,3
335,174,128,106,19,39,68,107,89,77,23,28,41,141,97,79,17,43,55,174,130,110,18,36,68,3
336,206,132,87,22,57,80,83,45,19,24,77,32,0,0,0,0,0,0,158,94,56,22,64,61,3
337,180,125,106,15,41,70,46,29,24,13,47,18,103,64,45,19,56,40,96,56,42,15,56,37,3
338,205,166,147,19,28,80,51,48,52,285,7,20,0,0,0,0,0,0,145,116,107,14,26,56,3
339,228,178,162,14,28,89,63,50,43,20,31,24,142,93,76,15,46,55,153,108,95,13,37,60,3
340,141,89,61,20,56,55,72,52,38,24,47,28,144,109,90,21,37,56,127,88,61,24,51,49,3
341,246,174,140,19,43,96,88,67,50,26,43,34,144,94,71,18,50,56,150,87,62,17,58,58,3
342,228,173,124,28,45,89,105,107,97,72,9,41,78,65,49,33,37,30,139,103,75,26,46,54,3
343,196,148,129,17,34,76,41,41,44,240,6,17,150,108,90,17,40,58,128,88,68,20,46,50,3
344,169,112,76,23,55,66,81,75,72,20,11,31,70,42,28,19,60,27,133,91,70,19,47,52,3
345,169,121,96,20,43,66,51,35,27,20,47,20,0,0,0,0,0,0,108,69,54,16,50,42,3
346,188,123,90,20,52,73,63,37,29,14,53,24,90,61,46,20,48,35,127,88,66,21,48,49,3
347,194,127,92,20,52,76,56,35,30,11,46,21,112,74,56,19,50,43,167,104,73,19,56,65,3
348,221,170,147,18,33,86,29,19,18,5,37,11,83,49,36,16,56,32,112,69,54,15,51,43,3
349,242,197,178,17,26,94,61,39,34,11,44,23,166,126,106,20,36,65,127,91,80,14,37,49,3
350,196,138,115,17,41,76,94,78,73,14,22,36,104,74,60,19,42,40,146,103,83,19,43,57,3
351,186,129,105,17,43,72,59,51,51,0,13,23,0,0,0,0,0,0,121,84,71,15,41,47,3
352,187,129,105,17,43,73,67,61,60,8,10,26,54,32,20,21,62,21,122,84,72,14,40,47,3
353,70,48,43,11,38,27,33,28,29,348,15,12,121,98,97,2,19,47,78,51,46,9,41,30,3
354,200,159,145,15,27,78,58,52,47,27,18,22,0,0,0,0,0,0,117,85,76,13,35,45,3
355,208,144,119,16,42,81,55,35,26,18,52,21,172,123,100,19,41,67,145,94,73,17,49,56,3
356,171,123,91,24,46,67,73,55,44,22,39,28,132,98,75,24,43,51,124,87,63,23,49,48,3
357,174,113,85,18,51,68,80,54,45,15,43,31,162,113,90,19,44,63,135,96,83,14,38,52,3
358,207,164,146,17,29,81,61,45,37,20,39,23,0,0,0,0,0,0,120,86,73,16,39,47,3
359,76,55,48,15,36,29,31,22,20,10,35,12,0,0,0,0,0,0,110,77,65,15,40,43,3
360,206,156,140,14,32,80,77,65,62,11,19,30,99,73,68,9,31,38,127,89,80,11,37,49,3
361,173,138,117,22,32,67,57,53,42,44,26,22,63,49,41,21,34,24,109,77,53,25,51,42,3
362,158,123,105,20,33,61,49,39,38,5,22,19,78,60,52,18,33,30,122,95,84,17,31,47,3
363,175,135,120,16,31,68,65,48,41,17,36,25,0,0,0,0,0,0,169,129,118,12,30,66,3
364,95,66,56,15,41,37,23,17,14,20,39,9,103,81,67,23,34,40,72,45,33,18,54,28,3
365,176,147,138,14,21,69,62,58,57,11,8,24,134,109,99,17,26,52,148,118,111,11,25,58,3
366,181,144,125,20,30,70,61,52,46,23,24,23,0,0,0,0,0,0,108,82,69,20,36,42,3
